00:00:00.365659 VirtualBox GUI VM Selector Window 6.1.0 r135406 linux.amd64 (Dec 12 2019 21:11:25) release log
00:00:00.365660 Log opened 2019-12-24T12:13:26.317217000Z
00:00:00.365661 Build Type: release
00:00:00.365663 OS Product: Linux
00:00:00.365664 OS Release: 5.4.6-arch1-1
00:00:00.365665 OS Version: #1 SMP PREEMPT Sat, 21 Dec 2019 16:34:41 +0000
00:00:00.365680 DMI Product Name: XPS 15 9570
00:00:00.365686 DMI Product Version: 
00:00:00.365689 Firmware type: UEFI
00:00:00.366686 Secure Boot: Disabled
00:00:00.366718 Host RAM: 15758MB (15.3GB) total, 13627MB (13.3GB) available
00:00:00.366720 Executable: /usr/lib/virtualbox/VirtualBox
00:00:00.366721 Process ID: 28752
00:00:00.366721 Package type: LINUX_64BITS_GENERIC (OSE)
00:00:00.366741 Qt version: 5.14.0
00:00:00.394415 GUI: UIMediumEnumerator: Medium-enumeration started...
00:00:00.636932 GUI: UIDesktopWidgetWatchdog::sltHandleHostScreenAvailableGeometryCalculated: Screen 0 work area is actually resized to: 14x14 x 1877x996
00:00:00.668346 GUI: UIMediumEnumerator: Medium-enumeration finished!
00:00:12.667954 GUI: UIMediumEnumerator: Medium-enumeration finished!
00:00:29.877199 GUI: UIMediumEnumerator: Medium-enumeration finished!
00:05:53.684969 GUI: UIMediumEnumerator: Medium-enumeration finished!
00:06:52.399857 GUI: UIMediumEnumerator: Medium-enumeration finished!
00:07:41.649912 GUI: UIMediumEnumerator: Medium-enumeration finished!
01:07:17.315069 GUI: UIMediumEnumerator: Medium with key={{a13d0ad8-18c6-401c-b3a6-d74309a54e10}} created
01:07:17.315121 Log rotated - Log started 2019-12-24T12:13:26.317217000Z
