00:00:00.371064 VirtualBox GUI VM Selector Window 6.1.0 r135406 linux.amd64 (Dec 12 2019 21:11:25) release log
00:00:00.371068 Log opened 2019-12-24T11:57:57.777545000Z
00:00:00.371069 Build Type: release
00:00:00.371073 OS Product: Linux
00:00:00.371075 OS Release: 5.4.6-arch1-1
00:00:00.371078 OS Version: #1 SMP PREEMPT Sat, 21 Dec 2019 16:34:41 +0000
00:00:00.371109 DMI Product Name: XPS 15 9570
00:00:00.371123 DMI Product Version: 
00:00:00.371131 Firmware type: UEFI
00:00:00.372249 Secure Boot: Disabled
00:00:00.372322 Host RAM: 15758MB (15.3GB) total, 13773MB (13.4GB) available
00:00:00.372327 Executable: /usr/lib/virtualbox/VirtualBox
00:00:00.372329 Process ID: 164199
00:00:00.372330 Package type: LINUX_64BITS_GENERIC (OSE)
00:00:00.372377 Qt version: 5.14.0
00:00:00.410696 GUI: UIMediumEnumerator: Medium-enumeration started...
00:00:00.657056 GUI: UIDesktopWidgetWatchdog::sltHandleHostScreenAvailableGeometryCalculated: Screen 0 work area is actually resized to: 1927x14 x 1877x996
00:00:00.679753 GUI: UIMediumEnumerator: Medium-enumeration finished!
00:00:10.887922 ERROR [COM]: aRC=NS_ERROR_UNEXPECTED (0x8000ffff) aIID={c0447716-ff5a-4795-b57a-ecd5fffa18a4} aComponent={SessionWrap} aText={The session is not locked (session state: Unlocked)}, preserve=false aResultDetail=0
00:00:12.847267 2D support test succeeded
00:00:20.815915 GUI: UIMediumEnumerator: Medium-enumeration finished!
