00:00:00.263185 VirtualBox GUI VM Selector Window 6.1.0 r135406 linux.amd64 (Dec 12 2019 21:11:25) release log
00:00:00.263187 Log opened 2019-12-24T11:51:34.719948000Z
00:00:00.263187 Build Type: release
00:00:00.263189 OS Product: Linux
00:00:00.263189 OS Release: 5.4.6-arch1-1
00:00:00.263190 OS Version: #1 SMP PREEMPT Sat, 21 Dec 2019 16:34:41 +0000
00:00:00.263203 DMI Product Name: XPS 15 9570
00:00:00.263207 DMI Product Version: 
00:00:00.263210 Firmware type: UEFI
00:00:00.264131 Secure Boot: Disabled
00:00:00.264156 Host RAM: 15758MB (15.3GB) total, 13490MB (13.1GB) available
00:00:00.264158 Executable: /usr/lib/virtualbox/VirtualBox
00:00:00.264159 Process ID: 148155
00:00:00.264159 Package type: LINUX_64BITS_GENERIC (OSE)
00:00:00.264176 Qt version: 5.14.0
00:00:00.297108 GUI: UIMediumEnumerator: Medium-enumeration started...
00:00:00.297125 GUI: UIMediumEnumerator: Medium-enumeration finished!
00:00:00.614499 GUI: UIDesktopWidgetWatchdog::sltHandleHostScreenAvailableGeometryCalculated: Screen 0 work area is actually resized to: 1927x14 x 1877x996
00:00:00.687422 refreshCertificates/#1: Certificate '/etc/ca-certificates/extracted/objsign-ca-bundle.pem' is empty
00:00:00.692147 refreshCertificates/#3: Found 1/300 SSL certs we/you trust (previously 0/0).
00:01:39.407520 GUI: UIMediumEnumerator: Medium with key={{53098d83-0c41-4729-be73-9b26a50e826c}} created
00:01:39.481052 GUI: UIMediumEnumerator: Medium-enumeration finished!
00:01:47.237355 2D support test succeeded
00:03:54.100515 GUI: UIMediumEnumerator: Medium with key={{7cf4ec16-f71c-41b8-bd5b-d6ead155bc6f}} created
00:03:54.118001 GUI: UIMediumEnumerator: Medium-enumeration finished!
00:03:55.754339 GUI: UIMediumEnumerator: Medium-enumeration finished!
00:03:55.793676 GUI: UIMediumEnumerator: Medium-enumeration finished!
00:04:18.137761 GUI: UIMediumEnumerator: Medium-enumeration finished!
00:04:41.589314 ERROR [COM]: aRC=NS_ERROR_UNEXPECTED (0x8000ffff) aIID={c0447716-ff5a-4795-b57a-ecd5fffa18a4} aComponent={SessionWrap} aText={The session is not locked (session state: Unlocked)}, preserve=false aResultDetail=0
