00:00:00.000133 main     VirtualBox XPCOM Server 6.1.0 r135406 linux.amd64 (Dec 12 2019 21:11:25) release log
00:00:00.000135 main     Log opened 2019-12-24T11:51:34.568277000Z
00:00:00.000135 main     Build Type: release
00:00:00.000137 main     OS Product: Linux
00:00:00.000138 main     OS Release: 5.4.6-arch1-1
00:00:00.000139 main     OS Version: #1 SMP PREEMPT Sat, 21 Dec 2019 16:34:41 +0000
00:00:00.000154 main     DMI Product Name: XPS 15 9570
00:00:00.000161 main     DMI Product Version: 
00:00:00.000164 main     Firmware type: UEFI
00:00:00.001168 main     Secure Boot: Disabled
00:00:00.001202 main     Host RAM: 15758MB (15.3GB) total, 13491MB (13.1GB) available
00:00:00.001204 main     Executable: /usr/lib/virtualbox/VBoxSVC
00:00:00.001205 main     Process ID: 148220
00:00:00.001205 main     Package type: LINUX_64BITS_GENERIC (OSE)
00:00:00.002697 main     IPC socket path: /tmp/.vbox-michael-ipc/ipcd
00:00:00.108534 nspr-2   VirtualBox: object creation starts
00:00:00.108577 nspr-2   Home directory: '/home/michael/.config/VirtualBox'
00:00:00.113864 nspr-2   NetIfAdpCtlOut: VBoxNetAdpCtl: Error while retrieving link speed for wlp59s0: VBoxNetAdpCtl: ioctl failed: Operation not supported
00:00:00.114336 nspr-2   HostDnsMonitor: initializing
00:00:00.114646 nspr-2   NAT: resolv.conf: nameserver 192.168.20.1
00:00:00.114656 nspr-2   HostDnsMonitor: updating information
00:00:00.114669 nspr-2   HostDnsMonitor: old information
00:00:00.114671 nspr-2     no server entries
00:00:00.114673 nspr-2     no domain set
00:00:00.114674 nspr-2     no search string entries
00:00:00.114676 nspr-2   HostDnsMonitor: new information
00:00:00.114678 nspr-2     server 1: 192.168.20.1
00:00:00.114679 nspr-2     domain: Home
00:00:00.114681 nspr-2     search string 1: Home
00:00:00.116203 nspr-2   Failed to open "/dev/vboxdrvu", errno=2, rc=VERR_VM_DRIVER_NOT_INSTALLED
00:00:00.116305 nspr-2   VD: VDInit finished with VINF_SUCCESS
00:00:00.116353 nspr-2   ERROR [COM]: aRC=NS_ERROR_FAILURE (0x80004005) aIID={027bc463-929c-40e8-bf16-fea557cd8e7e} aComponent={SystemPropertiesWrap} aText={Cannot determine default Guest Additions ISO location. Most likely they are not available}, preserve=false aResultDetail=0
00:00:00.116717 nspr-2   VirtualBox: object created
00:00:02.526021 nspr-2   Saving settings file "/home/michael/.config/VirtualBox/VirtualBox.xml" with version "1.12-linux"
00:00:02.553268 nspr-3   Saving settings file "/home/michael/.config/VirtualBox/VirtualBox.xml" with version "1.12-linux"
00:00:23.903997 nspr-2   Failed to open "/dev/vboxdrvu", errno=2, rc=VERR_VM_DRIVER_NOT_INSTALLED
00:00:23.906229 nspr-2   Failed to open "/dev/vboxdrvu", errno=2, rc=VERR_VM_DRIVER_NOT_INSTALLED
00:01:38.625660 createBase Saving settings file "/home/michael/.config/VirtualBox/VirtualBox.xml" with version "1.12-linux"
00:01:39.309138 nspr-3   Saving settings file "/home/michael/VirtualBox VMs/Arch(1)/Arch(1).vbox" with version "1.16-linux"
00:01:39.313689 nspr-4   WARNING [COM]: aRC=NS_ERROR_FAILURE (0x80004005) aIID={16ced992-5fdc-4aba-aff5-6a39bbd7c38b} aComponent={HostWrap} aText={Could not load the Host USB Proxy service: VERR_NOT_FOUND}, preserve=true  aResultDetail=0
00:01:39.314394 nspr-3   Saving settings file "/home/michael/VirtualBox VMs/Arch(1)/Arch(1).vbox" with version "1.16-linux"
00:01:39.318245 nspr-3   Saving settings file "/home/michael/.config/VirtualBox/VirtualBox.xml" with version "1.12-linux"
00:01:39.328013 nspr-3   Saving settings file "/home/michael/.config/VirtualBox/VirtualBox.xml" with version "1.12-linux"
00:01:39.332611 nspr-3   Saving settings file "/home/michael/VirtualBox VMs/Arch(1)/Arch(1).vbox" with version "1.16-linux"
00:01:39.683403 nspr-3   WARNING [COM]: aRC=NS_ERROR_FAILURE (0x80004005) aIID={16ced992-5fdc-4aba-aff5-6a39bbd7c38b} aComponent={HostWrap} aText={Could not load the Host USB Proxy service: VERR_NOT_FOUND}, preserve=true  aResultDetail=0
00:01:39.698828 nspr-2   Failed to open "/dev/vboxdrvu", errno=2, rc=VERR_VM_DRIVER_NOT_INSTALLED
00:01:39.754120 nspr-2   WARNING [COM]: aRC=NS_ERROR_FAILURE (0x80004005) aIID={16ced992-5fdc-4aba-aff5-6a39bbd7c38b} aComponent={HostWrap} aText={Could not load the Host USB Proxy service: VERR_NOT_FOUND}, preserve=true  aResultDetail=0
00:01:39.755477 nspr-2   WARNING [COM]: aRC=NS_ERROR_FAILURE (0x80004005) aIID={16ced992-5fdc-4aba-aff5-6a39bbd7c38b} aComponent={HostWrap} aText={Could not load the Host USB Proxy service: VERR_NOT_FOUND}, preserve=true  aResultDetail=0
00:01:46.812345 nspr-3   Failed to open "/dev/vboxdrvu", errno=2, rc=VERR_VM_DRIVER_NOT_INSTALLED
00:01:46.884456 nspr-2   WARNING [COM]: aRC=NS_ERROR_FAILURE (0x80004005) aIID={16ced992-5fdc-4aba-aff5-6a39bbd7c38b} aComponent={HostWrap} aText={Could not load the Host USB Proxy service: VERR_NOT_FOUND}, preserve=true  aResultDetail=0
00:01:47.135412 nspr-2   Failed to open "/dev/vboxdrvu", errno=2, rc=VERR_VM_DRIVER_NOT_INSTALLED
00:01:47.135498 nspr-4   Failed to open "/dev/vboxdrvu", errno=2, rc=VERR_VM_DRIVER_NOT_INSTALLED
00:01:47.135578 nspr-2   Failed to open "/dev/vboxdrvu", errno=2, rc=VERR_VM_DRIVER_NOT_INSTALLED
00:01:47.146040 nspr-4   NetIfAdpCtlOut: VBoxNetAdpCtl: Error while retrieving link speed for wlp59s0: VBoxNetAdpCtl: ioctl failed: Operation not supported
00:01:47.150484 nspr-4   NetIfAdpCtlOut: VBoxNetAdpCtl: Error while retrieving link speed for wlp59s0: VBoxNetAdpCtl: ioctl failed: Operation not supported
00:01:47.160444 nspr-2   WARNING [COM]: aRC=NS_ERROR_FAILURE (0x80004005) aIID={16ced992-5fdc-4aba-aff5-6a39bbd7c38b} aComponent={HostWrap} aText={Could not load the Host USB Proxy service: VERR_NOT_FOUND}, preserve=true  aResultDetail=0
00:01:47.160823 nspr-2   WARNING [COM]: aRC=NS_ERROR_FAILURE (0x80004005) aIID={16ced992-5fdc-4aba-aff5-6a39bbd7c38b} aComponent={HostWrap} aText={Could not load the Host USB Proxy service: VERR_NOT_FOUND}, preserve=true  aResultDetail=0
00:01:47.253917 nspr-4   Failed to open "/dev/vboxdrvu", errno=2, rc=VERR_VM_DRIVER_NOT_INSTALLED
00:01:47.261176 nspr-4   WARNING [COM]: aRC=NS_ERROR_FAILURE (0x80004005) aIID={16ced992-5fdc-4aba-aff5-6a39bbd7c38b} aComponent={HostWrap} aText={Could not load the Host USB Proxy service: VERR_NOT_FOUND}, preserve=true  aResultDetail=0
00:01:47.261792 nspr-4   WARNING [COM]: aRC=NS_ERROR_FAILURE (0x80004005) aIID={16ced992-5fdc-4aba-aff5-6a39bbd7c38b} aComponent={HostWrap} aText={Could not load the Host USB Proxy service: VERR_NOT_FOUND}, preserve=true  aResultDetail=0
00:03:53.989852 nspr-3   Saving settings file "/home/michael/.config/VirtualBox/VirtualBox.xml" with version "1.12-linux"
00:03:53.994391 nspr-4   Saving settings file "/home/michael/.config/VirtualBox/VirtualBox.xml" with version "1.12-linux"
00:03:54.011352 nspr-3   Failed to open "/dev/vboxdrvu", errno=2, rc=VERR_VM_DRIVER_NOT_INSTALLED
00:03:54.018411 nspr-3   WARNING [COM]: aRC=NS_ERROR_FAILURE (0x80004005) aIID={16ced992-5fdc-4aba-aff5-6a39bbd7c38b} aComponent={HostWrap} aText={Could not load the Host USB Proxy service: VERR_NOT_FOUND}, preserve=true  aResultDetail=0
00:03:54.019016 nspr-3   WARNING [COM]: aRC=NS_ERROR_FAILURE (0x80004005) aIID={16ced992-5fdc-4aba-aff5-6a39bbd7c38b} aComponent={HostWrap} aText={Could not load the Host USB Proxy service: VERR_NOT_FOUND}, preserve=true  aResultDetail=0
00:03:55.586470 nspr-3   Saving settings file "/home/michael/.config/VirtualBox/VirtualBox.xml" with version "1.12-linux"
00:03:55.647128 nspr-3   WARNING [COM]: aRC=NS_ERROR_FAILURE (0x80004005) aIID={16ced992-5fdc-4aba-aff5-6a39bbd7c38b} aComponent={HostWrap} aText={Could not load the Host USB Proxy service: VERR_NOT_FOUND}, preserve=true  aResultDetail=0
00:03:55.647673 nspr-3   Saving settings file "/home/michael/VirtualBox VMs/Arch(1)/Arch(1).vbox" with version "1.16-linux"
00:03:55.690432 nspr-2   Failed to open "/dev/vboxdrvu", errno=2, rc=VERR_VM_DRIVER_NOT_INSTALLED
00:03:55.699316 nspr-3   WARNING [COM]: aRC=NS_ERROR_FAILURE (0x80004005) aIID={16ced992-5fdc-4aba-aff5-6a39bbd7c38b} aComponent={HostWrap} aText={Could not load the Host USB Proxy service: VERR_NOT_FOUND}, preserve=true  aResultDetail=0
00:03:55.699991 nspr-3   WARNING [COM]: aRC=NS_ERROR_FAILURE (0x80004005) aIID={16ced992-5fdc-4aba-aff5-6a39bbd7c38b} aComponent={HostWrap} aText={Could not load the Host USB Proxy service: VERR_NOT_FOUND}, preserve=true  aResultDetail=0
00:04:00.570593 nspr-2   Failed to open "/dev/vboxdrvu", errno=2, rc=VERR_VM_DRIVER_NOT_INSTALLED
00:04:00.629583 nspr-2   WARNING [COM]: aRC=NS_ERROR_FAILURE (0x80004005) aIID={16ced992-5fdc-4aba-aff5-6a39bbd7c38b} aComponent={HostWrap} aText={Could not load the Host USB Proxy service: VERR_NOT_FOUND}, preserve=true  aResultDetail=0
00:04:00.787594 nspr-4   Failed to open "/dev/vboxdrvu", errno=2, rc=VERR_VM_DRIVER_NOT_INSTALLED
00:04:00.787691 nspr-2   Failed to open "/dev/vboxdrvu", errno=2, rc=VERR_VM_DRIVER_NOT_INSTALLED
00:04:00.788477 nspr-4   Failed to open "/dev/vboxdrvu", errno=2, rc=VERR_VM_DRIVER_NOT_INSTALLED
00:04:00.801530 nspr-4   NetIfAdpCtlOut: VBoxNetAdpCtl: Error while retrieving link speed for wlp59s0: VBoxNetAdpCtl: ioctl failed: Operation not supported
00:04:00.806476 nspr-4   NetIfAdpCtlOut: VBoxNetAdpCtl: Error while retrieving link speed for wlp59s0: VBoxNetAdpCtl: ioctl failed: Operation not supported
00:04:00.814549 nspr-4   WARNING [COM]: aRC=NS_ERROR_FAILURE (0x80004005) aIID={16ced992-5fdc-4aba-aff5-6a39bbd7c38b} aComponent={HostWrap} aText={Could not load the Host USB Proxy service: VERR_NOT_FOUND}, preserve=true  aResultDetail=0
00:04:00.815641 nspr-4   WARNING [COM]: aRC=NS_ERROR_FAILURE (0x80004005) aIID={16ced992-5fdc-4aba-aff5-6a39bbd7c38b} aComponent={HostWrap} aText={Could not load the Host USB Proxy service: VERR_NOT_FOUND}, preserve=true  aResultDetail=0
00:04:00.896921 nspr-2   Failed to open "/dev/vboxdrvu", errno=2, rc=VERR_VM_DRIVER_NOT_INSTALLED
00:04:00.905764 nspr-4   WARNING [COM]: aRC=NS_ERROR_FAILURE (0x80004005) aIID={16ced992-5fdc-4aba-aff5-6a39bbd7c38b} aComponent={HostWrap} aText={Could not load the Host USB Proxy service: VERR_NOT_FOUND}, preserve=true  aResultDetail=0
00:04:00.906464 nspr-4   WARNING [COM]: aRC=NS_ERROR_FAILURE (0x80004005) aIID={16ced992-5fdc-4aba-aff5-6a39bbd7c38b} aComponent={HostWrap} aText={Could not load the Host USB Proxy service: VERR_NOT_FOUND}, preserve=true  aResultDetail=0
00:04:17.897070 nspr-4   WARNING [COM]: aRC=NS_ERROR_FAILURE (0x80004005) aIID={16ced992-5fdc-4aba-aff5-6a39bbd7c38b} aComponent={HostWrap} aText={Could not load the Host USB Proxy service: VERR_NOT_FOUND}, preserve=true  aResultDetail=0
00:04:17.897380 nspr-4   Saving settings file "/home/michael/VirtualBox VMs/Arch(1)/Arch(1).vbox" with version "1.16-linux"
00:04:18.033013 nspr-2   Failed to open "/dev/vboxdrvu", errno=2, rc=VERR_VM_DRIVER_NOT_INSTALLED
00:04:18.042587 nspr-3   WARNING [COM]: aRC=NS_ERROR_FAILURE (0x80004005) aIID={16ced992-5fdc-4aba-aff5-6a39bbd7c38b} aComponent={HostWrap} aText={Could not load the Host USB Proxy service: VERR_NOT_FOUND}, preserve=true  aResultDetail=0
00:04:18.043335 nspr-3   WARNING [COM]: aRC=NS_ERROR_FAILURE (0x80004005) aIID={16ced992-5fdc-4aba-aff5-6a39bbd7c38b} aComponent={HostWrap} aText={Could not load the Host USB Proxy service: VERR_NOT_FOUND}, preserve=true  aResultDetail=0
00:04:19.636310 nspr-2   Launched VM: 1275074704 pid: 157898 (0x268ca) frontend: GUI/Qt name: Arch(1)
00:04:19.682178 nspr-3   Failed to open "/dev/vboxdrvu", errno=2, rc=VERR_VM_DRIVER_NOT_INSTALLED
00:04:19.701329 nspr-3   WARNING [COM]: aRC=NS_ERROR_FAILURE (0x80004005) aIID={16ced992-5fdc-4aba-aff5-6a39bbd7c38b} aComponent={HostWrap} aText={Could not load the Host USB Proxy service: VERR_NOT_FOUND}, preserve=true  aResultDetail=0
00:04:19.702128 nspr-3   WARNING [COM]: aRC=NS_ERROR_FAILURE (0x80004005) aIID={16ced992-5fdc-4aba-aff5-6a39bbd7c38b} aComponent={HostWrap} aText={Could not load the Host USB Proxy service: VERR_NOT_FOUND}, preserve=true  aResultDetail=0
00:04:20.137440 Watcher  ERROR [COM]: aRC=NS_ERROR_FAILURE (0x80004005) aIID={85632c68-b5bb-4316-a900-5eb28d3413df} aComponent={MachineWrap} aText={The virtual machine 'Arch(1)' has terminated unexpectedly during startup with exit code 1 (0x1)}, preserve=false aResultDetail=0
00:04:20.713018 nspr-2   Failed to open "/dev/vboxdrvu", errno=2, rc=VERR_VM_DRIVER_NOT_INSTALLED
00:04:20.731780 nspr-4   WARNING [COM]: aRC=NS_ERROR_FAILURE (0x80004005) aIID={16ced992-5fdc-4aba-aff5-6a39bbd7c38b} aComponent={HostWrap} aText={Could not load the Host USB Proxy service: VERR_NOT_FOUND}, preserve=true  aResultDetail=0
00:04:20.732421 nspr-4   WARNING [COM]: aRC=NS_ERROR_FAILURE (0x80004005) aIID={16ced992-5fdc-4aba-aff5-6a39bbd7c38b} aComponent={HostWrap} aText={Could not load the Host USB Proxy service: VERR_NOT_FOUND}, preserve=true  aResultDetail=0
00:06:02.898896 nspr-2   Saving settings file "/home/michael/.config/VirtualBox/VirtualBox.xml" with version "1.12-linux"
00:06:02.913002 nspr-2   Saving settings file "/home/michael/.config/VirtualBox/VirtualBox.xml" with version "1.12-linux"
00:06:02.918086 nspr-3   Saving settings file "/home/michael/.config/VirtualBox/VirtualBox.xml" with version "1.12-linux"
00:06:02.927277 nspr-4   Saving settings file "/home/michael/.config/VirtualBox/VirtualBox.xml" with version "1.12-linux"
00:06:02.933844 nspr-4   Saving settings file "/home/michael/.config/VirtualBox/VirtualBox.xml" with version "1.12-linux"
00:06:02.938971 nspr-2   Saving settings file "/home/michael/.config/VirtualBox/VirtualBox.xml" with version "1.12-linux"
00:06:02.943812 nspr-3   Saving settings file "/home/michael/.config/VirtualBox/VirtualBox.xml" with version "1.12-linux"
00:06:08.455519 main     VirtualBox: object deletion starts
00:06:08.455547 main     ERROR [COM]: aRC=VBOX_E_OBJECT_IN_USE (0x80bb000c) aIID={ad47ad09-787b-44ab-b343-a082a3f2dfb1} aComponent={MediumWrap} aText={Medium '/home/michael/VirtualBox VMs/Arch(1)/Arch(1).vdi' cannot be closed because it is still attached to 1 virtual machines}, preserve=false aResultDetail=0
00:06:08.455783 main     HostDnsMonitor: shutting down ...
00:06:08.456082 main     HostDnsMonitor: shut down
00:06:08.667855 Watcher  ERROR [COM]: aRC=E_ACCESSDENIED (0x80070005) aIID={d0a0163f-e254-4e5b-a1f2-011cf991c38d} aComponent={VirtualBoxWrap} aText={The object is not ready}, preserve=false aResultDetail=0
00:06:13.456232 main     {00007f3250015070} HostPowerServiceLinux::~HostPowerServiceLinux: RTThreadWait() for 5000 ms failed with VERR_TIMEOUT
00:06:13.456743 main     VirtualBox: object deleted
